{
  "data": {
    "receipt": {
      "store": {
        "name": "DIAMOND",
        "branch": "Points Square Lt. LG, Labak Bulus - Jakarta Selatan",
        "company": "PT. KAGE DWIJAYA",
        "address": "Jl. Boulevard Blok M Kelapa, Jakarta Utara",
        "npwp": "01.321.834.2-046.000"
      },
      "transaction": {
        "bill_no": "P3222196362",
        "station": "03BW22(03 POS SWALAYAN)",
        "cashier": "03CBR08(RISMA)",
        "date": "2026-03-29",
        "time_start": "14:16:21",
        "time_end": "14:18:44",
        "customer_id": "030029162",
        "customer_name": "SISKA RIYANTI",
        "payment_method": "QRIS MANDIRI"
      },
      "items": [
        {
          "name": "QUEEN FOOD SHRIMP ROLL 350GR",
          "price": 45000,
          "discount": -9000,
          "subtotal": 36000
        },
        {
          "name": "SO GOOD CHICKEN NUGGET MAC&CHEESE 400GR",
          "price": 51600,
          "discount": -16000,
          "subtotal": 35600
        },
        {
          "name": "FIESTA RTS BEEF YAKINIKU 300GR",
          "price": 55200,
          "discount": 0,
          "subtotal": 55200
        },
        {
          "name": "*SPRD PISANG CAVENDISH / KG",
          "qty": 1,
          "unit_price": 26500,
          "price": 26553,
          "discount": 0,
          "subtotal": 26553
        },
        {
          "name": "KUSNO BASO SAPI BESAR 250GR",
          "qty": 2,
          "unit_price": 28900,
          "price": 57800,
          "discount": 0,
          "subtotal": 57800
        },
        {
          "name": "*BAWANG PUTIH KATING / KG",
          "qty": 0.07,
          "unit_price": 41500,
          "price": 2739,
          "discount": 0,
          "subtotal": 2739
        },
        {
          "name": "*BAWANG MERAH / KG",
          "qty": 0.18,
          "unit_price": 55250,
          "price": 10166,
          "discount": 0,
          "subtotal": 10166
        },
        {
          "name": "*BRASTAGI WORTEL CURAH / KG",
          "qty": 0.45,
          "unit_price": 25500,
          "price": 11577,
          "discount": 0,
          "subtotal": 11577
        },
        {
          "name": "*KEMBANG KOL / KG",
          "qty": 0.38,
          "unit_price": 42500,
          "price": 16320,
          "discount": 0,
          "subtotal": 16320
        },
        {
          "name": "*BAWANG BOMBAI / KG",
          "qty": 0.4,
          "unit_price": 29500,
          "price": 11918,
          "discount": 0,
          "subtotal": 11918
        }
      ],
      "summary": {
        "total_qty": 72,
        "net": 1207206,
        "rounding": 0,
        "total": 1207206,
        "total_discount": 74350,
        "non_taxable": 349607,
        "taxable": 772613,
        "tax": 84987,
        "amount_paid": 1207206,
        "change": 0,
        "savings": 74350
      },
      "loyalty": {
        "total_points_until": "2026-03-28",
        "total_points": 172,
        "points_earned_this_transaction": 12
      },
      "contact": {
        "whatsapp_order": "0881-0108-47140"
      }
    }
  },
  "meta": {
    "pagination": {
      "page": 1,
      "per_page": 10,
      "total_items": 29,
      "total_pages": 3,
      "has_next_page": true,
      "has_prev_page": false,
      "next_page": 2,
      "prev_page": null
    }
  }
}